Analysing Networks with Tidygraph
…
We will use three R network libraries to do almost everything network-related, from analysis to visualisation: igraph, tidygraph and ggraph. The goal is to port everything to a format which is easy to work with using existing an established data analysis workflow. That format is known as ‘tidy data’, and it is a way of working with data which is easily transferable across a range of uses. It also means you need to learn very little new programming to do network analysis if you stay within this ‘ecosystem’.

Import Network Data

The workflow uses a number of R packages. In the CSC Notebooks environment, these have already been installed and can be loaded using the commands below. If you are doing this on a local machine, you may have to install them first using the command install.packages(), with the package name specified as a string, for example install.packages('igraph').

In this class, we’ll use a dataset derived from the English State Papers. It takes the form of a .csv containing the information on the author, recipient, and date of sending for a small sample of state letters sent between 1670 and 1672.

Read the file into R with the read_csv() function from a previous lesson:

The letters dataset is a simple dataframe. Each row represents a letter record, and has a unique ID. Essentially, each row is a record of who the author and recipient of the letter. Each of these senders and recipients also have both a unique ID, and the original name of the letter writer and sender. The unique ID is used because it’s quite likely that the names are not unique, and the network could combine two nodes with the same name together, for example.

This is used to construct an edge list. If you have multiple letters between individuals, you can count them and use as a weight in the network, or you can ignore it. This is done with tidyverse commands we learned previously: group_by() and tally(), changing the name of the new column to ‘weight’.

# A tibble: 364 × 3
# Groups:   from_id [198]
   from_id                 to_id                   weight
   <chr>                   <chr>                    <int>
 1 E000145-S012650-T000000 E022443-S042999-T000000      1
 2 E000189-S014115-T000000 E004830-S019312-T000000      4
 3 E000189-S014115-T000000 E006871-S022202-T000000      1
 4 E000189-S014115-T000000 E022443-S042999-T000000      1
 5 E000312-S012741-T000000 E022443-S042999-T000000      2
 6 E000393-S036175-T000000 E001993-S018912-T000000      1
 7 E000520-S001769-T000000 E003476-S051213-T000000      1
 8 E000520-S001769-T000000 E022443-S042999-T000000      1
 9 E000799-S042396-T000000 E022443-S042999-T000000      1
10 E001346-S047404-T000000 E022443-S042999-T000000      1
# … with 354 more rows
…
Summarising the network data

To work with your new network metrics, the data can be outputted to a standard R dataframe. Create a new dataframe by doing this, using the tidyverse function for creating dataframes, as_tibble():

This new table can be sorted, totals counted, and so forth:

# A tibble: 248 × 3
   name                    degree between
   <chr>                    <dbl>   <dbl>
 1 E004830-S019312-T000000    604   8048.
 2 E022443-S042999-T000000    270  13404.
 3 E600059-S012260-T000000    161   3223.
 4 E013473                    150    235 
 5 E004654-S006979-T000000     91  11774.
 6 E001993-S018912-T000000     72   6663.
 7 E903376-S024822-T000000     57   1623 
 8 E008063                     51      0 
 9 E002620-S051125-T000000     47      0 
10 E906453-S026312-T000000     47      0 
# … with 238 more rows

Joining additional data

The value of working with a data model and tidygraph is that we can merge additional tables of data attributes to our nodes or edges. In a separate table, we have a dataset of attributes about this set of nodes, including place and dates of birth and death, and gender. Using the join() commands, we can merge this table to the network data, and use it to sort, filter (and later visualise) the data:

First, load the table of data using read_csv:

# A tibble: 248 × 13
   name     main_…¹ all_n…² links birth…³ death…⁴ gender roles…⁵ wikid…⁶ occup…⁷
   <chr>    <chr>   <chr>   <chr>   <dbl>   <dbl> <chr>  <chr>   <chr>   <chr>  
 1 E006019… Dr. Ra… Dr. Ra… http…    1617    1688 male   theolo… http:/… theolo…
 2 E011771… Hyde, … Edward… http…    1609    1674 male   judge;… http:/… judge;…
 3 E015103… Sir Ph… Sir Ph… http…    1607    1678 male   politi… http:/… politi…
 4 E020134… Taylor… Silas … http…    1624    1678 male   compos… http:/… compos…
 5 E014743… Sir Ed… Sir Ed… http…    1608    1654 male   econom… http:/… econom…
 6 E020485… Sir Th… Sir Th… http…    1612    1685 male   naval … http:/… naval …
 7 E004654… Charle… Charle… http…    1630    1685 male   sovere… http:/… sovere…
 8 E007992… Heneag… Heneag… http…    1628    1689 male   diplom… http:/… diplom…
 9 E007902… John F… John F… http…    1625    1686 male   priest  http:/… priest 
10 S035587  Philad… Philad… http…    1612    1665 female politi… http:/… politi…
# … with 238 more rows, 3 more variables: place_of_birth <chr>,
#   place_of_death <chr>, politician <chr>, and abbreviated variable names
#   ¹​main_name, ²​all_names, ³​birth_year, ⁴​death_year, ⁵​roles_titles,
#   ⁶​wikidata_item, ⁷​occupations
…
Node attributes could be added and used to filter at several steps: before the network is created, and before or after network metrics are calculated. What differences might these make?

Make sure you know at which stage you are calculating network metrics. If you calculate them after filtering, you’ll get a set of metrics based on a new, subsetted network.

This new table can be outputted as a dataframe, as above. Here we use this to calculate the highest-degree nodes from the ‘polticians network’, keep their real names, and sort in descending order of degree:

# A tibble: 94 × 3
   name                    main_name                                      degree
   <chr>                   <chr>                                           <dbl>
 1 E022443-S042999-T000000 Williamson, Joseph (Sir)                          174
 2 E001993-S018912-T000000 Henry Bennet, Earl of Arlington                    54
 3 E004654-S006979-T000000 Charles II, King of England, Scotland, and Ir…     53
 4 E002620-S051125-T000000 William Blathwaite                                 47
 5 E002622-S014197-T000000 Edward Conway, Earl of Conway                      30
 6 S016294                 Francis, Lord Aungier                              28
 7 E903376-S024822-T000000 Witt, Johan de                                     28
 8 S047442                 Thomas Belasyse, Earl of Fauconberg                26
 9 E921955-S041743-T000000 Sir George Rawdon                                  25
10 E021031-S049939-T000000 Van Beuningen                                      21
# … with 84 more rows
…
